^D:\HBS\Z_\개인개발\MonteCarlo\MonteCarlo\X64\RELEASE\MAIN.OBJ
D:\HBS\Z_\개인개발\MonteCarlo\X64\RELEASE\MonteCarlo.EXE
D:\HBS\Z_\개인개발\MonteCarlo\X64\RELEASE\MonteCarlo.IPDB
D:\HBS\Z_\개인개발\MonteCarlo\X64\RELEASE\MonteCarlo.IOBJ
D:\HBS\Z_\개인개발\MonteCarlo\X64\RELEASE\MonteCarlo.PDB
